%YAML 1.1
%TAG !u! tag:unity3d.com,2011:
--- !u!114 &11400000
MonoBehaviour:
  m_ObjectHideFlags: 0
  m_CorrespondingSourceObject: {fileID: 0}
  m_PrefabInstance: {fileID: 0}
  m_PrefabAsset: {fileID: 0}
  m_GameObject: {fileID: 0}
  m_Enabled: 1
  m_EditorHideFlags: 0
  m_Script: {fileID: 11500000, guid: 48bcd9cb9a7674c488da1768ab227f60, type: 3}
  m_Name: MainCharacterWeaponInfo_double
  m_EditorClassIdentifier: 
  m_id: weapon_double
  m_isActiveByDefault: 0
  m_characterSkin: {fileID: 7480112188113922900, guid: e300cf8f1cbb54f85aa84664ff3433de,
    type: 3}
  m_damage: 12
  m_launchForce: 0
  m_projectileGO: {fileID: -5575369776145803620, guid: cc0de72f1371177479a57e5d9ada8af2,
    type: 3}
